IS415-GAA - Take-home Exercise 3
…
3.2 Aggregate the Population Dataset

It is worth noting that we have two lakes that are considered districts here - Danau Sunter and Danau Sunter DII - which explains why they have 0 population size. We also do not have population data for districts outside of Jakarta here.

population <- population %>%
  group_by(district) %>%
  summarise(population_count = sum(population_2019))

# Inspect
population

# A tibble: 44 × 2
   district         population_count
   <chr>                       <dbl>
 1 Cakung                      38710
 2 Cempaka Putih                7440
 3 Cengkareng                  40470
 4 Cilandak                    16880
 5 Cilincing                   37471
 6 Cipayung                    21336
 7 Ciracas                     30015
 8 Danau Sunter                    0
 9 Danau Sunter Dll                0
10 Duren Sawit                 38150
# ℹ 34 more rows

3.3 Prepare the Augmented POIs Dataset

For a more useful analysis, we can break it down by POI category types and get the count of POIs within each category for each district, as shown in the pois_num tibble below.

# Count the number of POIs by district
pois_num <- pois %>%
  st_drop_geometry() %>%
  group_by(district) %>%
  summarise(num_of_pois = n(), .groups = 'drop')

# Inspect
pois_num

# A tibble: 44 × 2
   district         num_of_pois
   <chr>                  <int>
 1 cakung                    56
 2 cempaka putih             38
 3 cengkareng               298
 4 cilandak                 242
 5 cilincing                119
 6 cipayung                  56
 7 ciracas                  126
 8 danau sunter               1
 9 danau sunter dll           3
10 duren sawit              173
# ℹ 34 more rows
…
trips_origin_pois <- trips_origin %>%
  inner_join(pois_num, by = "district")

Let’s also include the population data from the population dataframe we imported into R.

# For the destination
district_dest <- trips_dest_pois %>%
  left_join(population %>% mutate(district = tolower(district)), 
            by = "district")

district_dest

# A tibble: 44 × 6
   district        num_of_trips avg_duration_minutes avg_distance_km num_of_pois
   <chr>                  <int>                <dbl>           <dbl>       <int>
 1 cakung                   844                 21.5            6.40          56
 2 cempaka putih            392                 19.1            6.13          38
 3 cengkareng              1120                 19.9            6.20         298
 4 cilandak                 905                 20.1            5.78         242
 5 cilincing                277                 24.4            7.24         119
 6 cipayung                 552                 22.5            7.08          56
 7 ciracas                  546                 22.6            7.03         126
 8 danau sunter              17                 17.3            5.21           1
 9 danau sunter d…           33                 16.9            5.00           3
10 duren sawit              877                 21.1            6.32         173
# ℹ 34 more rows
# ℹ 1 more variable: population_count <dbl>

# For the origin
district_origin <- trips_origin_pois %>%
  left_join(population %>% mutate(district = tolower(district)), 
            by = "district")

district_origin

# A tibble: 44 × 6
   district        num_of_trips avg_duration_minutes avg_distance_km num_of_pois
   <chr>                  <int>                <dbl>           <dbl>       <int>
 1 cakung                   628                 22.2            6.56          56
 2 cempaka putih            460                 17.9            5.52          38
 3 cengkareng               928                 20.2            6.00         298
 4 cilandak                 830                 20.4            6.09         242
 5 cilincing                266                 24.7            7.30         119
 6 cipayung                 481                 22.9            7.09          56
 7 ciracas                  607                 23.1            7.38         126
 8 danau sunter               4                 19.4            8.55           1
 9 danau sunter d…           34                 21.3            7.54           3
10 duren sawit              891                 21.3            6.39         173
# ℹ 34 more rows
# ℹ 1 more variable: population_count <dbl>
…
