IS415-GAA - Take-home Exercise 2 - Part 1
…
5.2.1 Identify Missing Values

We can observe 192 reported offences that do not include the ADM1_PCODE as seen from how some rows contain empty values ‘NA’. We are also getting the 192 empty geometry values as returned from the null test below.

drug_cases %>%
  filter(is.na(ADM1_PCODE)) %>%
  select(province_en, ADM1_PCODE)

Simple feature collection with 192 features and 2 fields (with 192 geometries empty)
Geometry type: MULTIPOLYGON
Dimension:     XY
Bounding box:  xmin: NA ymin: NA xmax: NA ymax: NA
Projected CRS: WGS 84 / UTM zone 47N
# A tibble: 192 × 3
   province_en ADM1_PCODE           geometry
   <chr>       <chr>      <MULTIPOLYGON [m]>
 1 Loburi      <NA>                    EMPTY
 2 buogkan     <NA>                    EMPTY
 3 Loburi      <NA>                    EMPTY
 4 buogkan     <NA>                    EMPTY
 5 Loburi      <NA>                    EMPTY
 6 buogkan     <NA>                    EMPTY
 7 Loburi      <NA>                    EMPTY
 8 buogkan     <NA>                    EMPTY
 9 Loburi      <NA>                    EMPTY
10 buogkan     <NA>                    EMPTY
# ℹ 182 more rows
…
print(drug_cases_province)

Simple feature collection with 77 features and 3 fields
Geometry type: MULTIPOLYGON
Dimension:     XY
Bounding box:  xmin: 325178.8 ymin: 620860.6 xmax: 1213656 ymax: 2263241
Projected CRS: WGS 84 / UTM zone 47N
# A tibble: 77 × 4
   province_en   total_cases ADM1_PCODE                                 geometry
   <chr>               <dbl> <chr>                            <MULTIPOLYGON [m]>
 1 Amnat Charoen       35435 TH37       (((1137720 1809629, 1137724 1809622, 11…
 2 Ang Thong           16168 TH15       (((643472.8 1636469, 643496 1636423, 64…
 3 Bangkok            286480 TH10       (((674339.8 1543300, 674382.3 1543278, …
 4 Bueng Kan           35287 TH38       (((965496 2045531, 965625.5 2045528, 96…
 5 Buri Ram            57352 TH31       (((921217 1750212, 921217 1750211, 9212…
 6 Chachoengsao        53514 TH24       (((722656.1 1546054, 722796 1546041, 72…
 7 Chai Nat            15310 TH18       (((620165.4 1704256, 620291.4 1704247, …
 8 Chaiyaphum          64497 TH36       (((772997.4 1851276, 773104.5 1851216, …
 9 Chanthaburi         31473 TH22       (((853764.8 1360716, 853783.1 1360713, …
10 Chiang Mai         121812 TH50       (((554883.3 2226795, 555000.6 2226791, …
# ℹ 67 more rows
…
print(drug_cases_province_year)

Simple feature collection with 462 features and 4 fields
Geometry type: MULTIPOLYGON
Dimension:     XY
Bounding box:  xmin: 325178.8 ymin: 620860.6 xmax: 1213656 ymax: 2263241
Projected CRS: WGS 84 / UTM zone 47N
# A tibble: 462 × 5
   province_en   fiscal_year total_cases ADM1_PCODE                     geometry
   <chr>               <dbl>       <dbl> <chr>                <MULTIPOLYGON [m]>
 1 Amnat Charoen        2017        5076 TH37       (((1137720 1809629, 1137724…
 2 Amnat Charoen        2018        5651 TH37       (((1137720 1809629, 1137724…
 3 Amnat Charoen        2019        7339 TH37       (((1137720 1809629, 1137724…
 4 Amnat Charoen        2020        3949 TH37       (((1137720 1809629, 1137724…
 5 Amnat Charoen        2021        8961 TH37       (((1137720 1809629, 1137724…
 6 Amnat Charoen        2022        4459 TH37       (((1137720 1809629, 1137724…
 7 Ang Thong            2017        1614 TH15       (((643472.8 1636469, 643496…
 8 Ang Thong            2018        2717 TH15       (((643472.8 1636469, 643496…
 9 Ang Thong            2019        2781 TH15       (((643472.8 1636469, 643496…
10 Ang Thong            2020        2636 TH15       (((643472.8 1636469, 643496…
# ℹ 452 more rows
…
wm_q <- drug_cases_province %>%
  mutate(nb = thailand_nb_q,
         wt = thailand_wt,
         .before = 1) 

# Inspect
wm_q

Simple feature collection with 77 features and 5 fields
Geometry type: MULTIPOLYGON
Dimension:     XY
Bounding box:  xmin: 325178.8 ymin: 620860.6 xmax: 1213656 ymax: 2263241
Projected CRS: WGS 84 / UTM zone 47N
# A tibble: 77 × 6
   nb        wt     province_en total_cases ADM1_PCODE                  geometry
 * <nb>      <list> <chr>             <dbl> <chr>             <MULTIPOLYGON [m]>
 1 <int [3]> <dbl>  Amnat Char…       35435 TH37       (((1137720 1809629, 1137…
 2 <int [4]> <dbl>  Ang Thong         16168 TH15       (((643472.8 1636469, 643…
 3 <int [6]> <dbl>  Bangkok          286480 TH10       (((674339.8 1543300, 674…
 4 <int [3]> <dbl>  Bueng Kan         35287 TH38       (((965496 2045531, 96562…
 5 <int [5]> <dbl>  Buri Ram          57352 TH31       (((921217 1750212, 92121…
 6 <int [8]> <dbl>  Chachoengs…       53514 TH24       (((722656.1 1546054, 722…
 7 <int [4]> <dbl>  Chai Nat          15310 TH18       (((620165.4 1704256, 620…
 8 <int [4]> <dbl>  Chaiyaphum        64497 TH36       (((772997.4 1851276, 773…
 9 <int [5]> <dbl>  Chanthaburi       31473 TH22       (((853764.8 1360716, 853…
10 <int [5]> <dbl>  Chiang Mai       121812 TH50       (((554883.3 2226795, 555…
# ℹ 67 more rows
…
lisa <- wm_q %>% 
  mutate(local_moran = local_moran(total_cases, nb, wt, 
                                   zero.policy = TRUE, nsim = 99),
         .before = 1) %>%
  unnest(local_moran)

# Inspect
lisa

Simple feature collection with 77 features and 17 fields
Geometry type: MULTIPOLYGON
Dimension:     XY
Bounding box:  xmin: 325178.8 ymin: 620860.6 xmax: 1213656 ymax: 2263241
Projected CRS: WGS 84 / UTM zone 47N
# A tibble: 77 × 18
        ii      eii   var_ii   z_ii   p_ii p_ii_sim p_folded_sim skewness
     <dbl>    <dbl>    <dbl>  <dbl>  <dbl>    <dbl>        <dbl>    <dbl>
 1 -0.125  -0.0343  0.0590   -0.375 0.708      0.48         0.24   -1.38 
 2  0.318  -0.0464  0.236     0.750 0.453      0.54         0.27   -0.943
 3  0.136  -0.607   2.84      0.441 0.659      0.68         0.34    0.261
 4  0.119   0.00744 0.0477    0.510 0.610      0.66         0.33   -1.85 
 5  0.0356 -0.0157  0.00322   0.904 0.366      0.36         0.18    1.36 
 6  0.0430 -0.00211 0.000311  2.56  0.0105     0.06         0.03    0.994
 7  0.604  -0.0901  0.306     1.25  0.210      0.06         0.03   -1.86 
 8  0.144  -0.00995 0.0329    0.847 0.397      0.26         0.13    1.80 
 9 -0.106  -0.0109  0.0559   -0.403 0.687      0.52         0.26   -1.17 
10 -0.534   0.0101  0.680    -0.660 0.509      0.58         0.29    1.02 
# ℹ 67 more rows
# ℹ 10 more variables: kurtosis <dbl>, mean <fct>, median <fct>, pysal <fct>,
#   nb <nb>, wt <list>, province_en <chr>, total_cases <dbl>, ADM1_PCODE <chr>,
#   geometry <MULTIPOLYGON [m]>
…
