IS415-GAA - Take-home Exercise 2
…
drug_cases <- drug_cases[!is.na(drug_cases$province_en), ]

Here, I create a new dataframe drug_cases_province to count the total number of cases per province.

drug_cases_province <- drug_cases %>% 
  group_by(province_en, fiscal_year) %>% 
  summarise(count = sum(no_cases)) 

`summarise()` has grouped output by 'province_en'. You can override using the
`.groups` argument.

drug_cases_province

# A tibble: 462 × 3
# Groups:   province_en [77]
   province_en   fiscal_year count
   <chr>               <dbl> <dbl>
 1 Amnat Charoen        2017  5076
 2 Amnat Charoen        2018  5651
 3 Amnat Charoen        2019  7339
 4 Amnat Charoen        2020  3949
 5 Amnat Charoen        2021  8961
 6 Amnat Charoen        2022  4459
 7 Ang Thong            2017  1614
 8 Ang Thong            2018  2717
 9 Ang Thong            2019  2781
10 Ang Thong            2020  2636
# ℹ 452 more rows
…
