IS415-GAA - In-class Exercise 4
…
fire_sf <- fire_sf %>%
  mutate(DayofYear = yday(acq_date)) %>%
  mutate(Month_num = month(acq_date)) %>%
  mutate(Month_fac = month(acq_date, 
                         label = TRUE,
                         abbr = FALSE))

fire_sf

Simple feature collection with 741 features and 16 fields
Geometry type: POINT
Dimension:     XY
Bounding box:  xmin: 521564.1 ymin: 9658137 xmax: 695791 ymax: 9828767
Projected CRS: WGS 84 / UTM zone 48S
# A tibble: 741 × 17
   brightness  scan track acq_date   acq_time satellite instrument confidence
 *      <dbl> <dbl> <dbl> <date>        <dbl> <chr>     <chr>           <dbl>
 1       312.   1.3   1.1 2023-01-10      629 Aqua      MODIS              67
 2       314.   1.2   1.1 2023-01-10      629 Aqua      MODIS              70
 3       315.   1.2   1.1 2023-01-10      629 Aqua      MODIS              71
 4       309.   1.2   1.1 2023-01-10      629 Aqua      MODIS              54
 5       308.   1.2   1.1 2023-01-10      629 Aqua      MODIS              33
 6       322.   1.3   1.1 2023-01-10      629 Aqua      MODIS              72
 7       318.   1.2   1.1 2023-01-10      629 Aqua      MODIS              71
 8       318.   1.2   1.1 2023-01-10      629 Aqua      MODIS              75
 9       327.   2     1.4 2023-01-12      616 Aqua      MODIS              73
10       321.   2     1.4 2023-01-12      616 Aqua      MODIS              75
# ℹ 731 more rows
# ℹ 9 more variables: version <dbl>, bright_t31 <dbl>, frp <dbl>,
#   daynight <chr>, type <dbl>, geometry <POINT [m]>, DayofYear <dbl>,
#   Month_num <dbl>, Month_fac <ord>
…
# Read all PNG files from the frames directory
frames <- image_read(list.files("frames", full.names = TRUE, pattern = "*.png"))

# Create animated GIF
animation <- image_animate(image_join(frames), fps = 10)  # Adjust fps as needed

# Save the animation
output_path <- "animated_kde_yday.gif"
image_write(animation, path = output_path)

# Display the GIF (optional)
print(animation)

# A tibble: 344 × 7
   format width height colorspace matte filesize density
   <chr>  <int>  <int> <chr>      <lgl>    <int> <chr>  
 1 gif      800    800 sRGB       FALSE        0 72x72  
 2 gif      800    800 sRGB       TRUE         0 72x72  
 3 gif      800    800 sRGB       TRUE         0 72x72  
 4 gif      800    800 sRGB       TRUE         0 72x72  
 5 gif      800    800 sRGB       TRUE         0 72x72  
 6 gif      800    800 sRGB       TRUE         0 72x72  
 7 gif      800    800 sRGB       TRUE         0 72x72  
 8 gif      800    800 sRGB       TRUE         0 72x72  
 9 gif      800    800 sRGB       TRUE         0 72x72  
10 gif      800    800 sRGB       TRUE         0 72x72  
# ℹ 334 more rows
…
