IS415-GAA - Take-home Exercise 1
…
💡 Hence, I will remove duplicated events found in the conflict_data dataframe as long as the rows have the same event ID indicated. However, I will create new columns to store the secondary actors, associated actors and interaction code. This will ensure we don’t lose sight of important data for the analysis later.

Here, I did another check to ensure that there is a maximum of one other actor involved for the first 50 rows of conflict_data.

# Check duplicated events first 50 rows
duplicate_counts_first_50 <- conflict_data %>%
  slice(1:50) %>%            
  group_by(event_id_cnty) %>% 
  summarize(count = n()) %>%  
  filter(count > 1)         

# View the result
print(duplicate_counts_first_50)

# A tibble: 22 × 2
   event_id_cnty count
   <chr>         <int>
 1 MMR64280          2
 2 MMR64282          2
 3 MMR64283          2
 4 MMR64285          2
 5 MMR64286          2
 6 MMR64287          2
 7 MMR64304          2
 8 MMR64313          2
 9 MMR64314          2
10 MMR64316          2
# ℹ 12 more rows
…
